{
  "api": {
    "apiUrlDaaWs": "http://dev-ema-mycompanionap.backend.experian-ma.com:8440/GenericDaaWebServices/rest/",
    "apiUrlCustomerCareApi": "http://dev-ema-mycompanionap.backend.experian-ma.com:8440/CustomerCareWebServices/rest/"
  },
  "operator": {
    "operatorName": "Test Operator",
    "operatorLogo": "http://",
    "maximumScore": 1000
  },
  "offerAccept": {
    "lowBalanceType": 2
  },
  "smsScrapping": [
    {
      "sourceNumber": "118218",
      "smsegex": "^You have only (\\d*\\.{0,1}\\d+) USD on your account",
      "smsType": "lowBalance",
      "parameters": {
        "mainBalance": 1
      },
      "defaultParameters": {
        "lowBalanceType": 1
      }
    },
    {
      "sourceNumber": "118218",
      "smsegex": "^Thank you for your recharge of (\\d*\\.{0,1}\\d+) USD. Your balance is now (\\d*\\.{0,1}\\d+) USD",
      "smsType": "topup",
      "parameters": {
        "topupAmount": 1,
        "mainBalanceAfter": 2
      },
      "defaultParameters": {
        "topupType": 2
      }
    }
  ],
  "texts": {
    "legalDisclaimer": "This app will be scanning SMS sent by your operator to manage airtime offers and reimbursements. No personal SMS is scanned. This ap will also activate balance transfers to automatically repay the airtime advance",
    "helpText": "This string will be replaced by the helpText for the correct client. It will be a mutli line text a proximatively this size, but this text is currently not available so we're going to use this dummy text instead. But for test, it is going to be ok.",
    "termsOfUse": "222This string will be replaced by the terms of use for the correct client. It will be a mutli line text a proximatively this size, but this text is currently not available so we're going to use this dummy text instead. But for test, it is going to be ok.",
    "privacyPolity": "This string will be replaced by the Privacy Polity for the correct client. It will be a mutli line text a proximatively this size, but this text is currently not available so we're going to use this dummy text instead. But for test, it is going to be ok."
  }
}
